{
  "input": {
    "container": [
      {
        "name": "main-input",
        "audio": [
          {
            "name": "a1"
          }
        ],
        "video": [
          {
            "name": "v1"
          }
        ],
        "subtitle": []
      },
      {
        "name": "sidecar-input-1",
        "subtitle": [
          {
            "name": "s1"
          }
        ]
      },
      {
        "name": "sidecar-input-2",
        "subtitle": [
          {
            "name": "s2"
          }
        ]
      },
      {
        "name": "sidecar-input-3",
        "subtitle": [
          {
            "name": "s3"
          }
        ]
      }
    ]
  },
  "output": {
    "container": [
      {
        "type": "mp4 ",
        "name": "output",
        "audio": [
          {
            "name": "a2",
            "route": {
              "name": "a1"
            }
          }
        ],
        "subtitle": [],
        "video": [
          {
            "name": "v2",
            "route": {
              "name": "v1"
            },
            "sample_rate": {
              "numerator": 30,
              "denominator": 1
            },
            "encode": {
              "type": "h264",
              "properties": {
                "OutputFormat": "avc1"
              }
            },
            "attach": [
              {
                "root": "a72c",
                "type": "c708"
              }
            ],
            "merge": {
              "combine": {
                "type": "cfic",
                "stream": [
                  {
                    "name": "s1",
                    "filter": [
                      {
                        "type": "ciem",
                        "properties": {
                          "OutputFormat": "c708",
                          "CaptionOutputFrameRate": 30.0
                        }
                      }
                    ],
                    "properties": {
                      "SourceTrack": 0,
                      "SourceChannel": 0,
                      "SourceField": 0,
                      "OutputChannel": 0,
                      "OutputService": 0,
                      "Language": "eng"
                    }
                  },
                  {
                    "name": "s2",
                    "filter": [
                      {
                        "type": "ciem",
                        "properties": {
                          "OutputFormat": "c708",
                          "CaptionOutputFrameRate": 30.0
                        }
                      }
                    ],
                    "properties": {
                      "SourceTrack": 1,
                      "SourceChannel": 0,
                      "SourceField": 0,
                      "OutputChannel": 1,
                      "OutputService": 1,
                      "Language": "fre"
                    }
                  },
                  {
                    "name": "s3",
                    "filter": [
                      {
                        "type": "ciem",
                        "properties": {
                          "OutputFormat": "c708",
                          "CaptionOutputFrameRate": 30.0
                        }
                      }
                    ],
                    "properties": {
                      "SourceTrack": 2,
                      "SourceChannel": 0,
                      "SourceField": 0,
                      "OutputChannel": 2,
                      "OutputService": 2,
                      "Language": "spa"
                    }
                  }
                ]
              }
            }
          }
        ]
      }
    ]
  }
}