{
  "input": {
    "container": [
      {
        "name": "input-1",
        "video": [
          {
            "name": "v1"
          }
        ]
      }
    ]
  },
  "output": {
    "container": [
      {
        "type": "mkv ",
        "name": "output-1",
        "video": [
          {
            "name": "v1",
            "route": {
              "name": "v1"
            },
            "encode": {
              "type": "h264",
              "properties": {
                "Profile": "high10"
              }
            }
          }
        ]
      }
    ]
  }
}