{
  "input": {
    "container": [
      {
        "name": "c1",
        "video": [
          {
            "name": "v1"
          }
        ],
        "audio": []
      },
      {
        "name": "c2",
        "subtitle": [
          {
            "name": "s1"
          }
        ]
      }
    ]
  },
  "output": {
    "container": [
      {
        "name": "c2",
        "type": "m2ps",
        "video": [
          {
            "name": "v2",
            "route": {
              "name": "v1"
            },
            "width": 1920,
            "height": 1080,
            "sample_rate": {
              "numerator": 30000,
              "denominator": 1001
            },
            "attach": [
              {
                "root": "a53c",
                "type": "c708"
              }
            ],
            "merge": {
              "name": "s1",
              "filter": [
                {
                  "properties": {
                    "OutputFormat": "c708"
                  },
                  "type": "ciem"
                },
                {
                  "type": "sccc"
                }
              ]
            },
            "encode": {
              "type": "mcm2",
              "properties": {
                "OutputFormat": "mp2v",
                "Profile": 4,
                "Level": 4
              }
            }
          }
        ],
        "audio": [],
        "subtitle": []
      }
    ]
  }
}