{
  "input": {
    "container": [
      {
        "name": "input1",
        "audio": [
          {
            "name": "a1"
          }
        ]
      }
    ]
  },
  "output": {
    "container": [
      {
        "name": "output1",
        "type": "wav ",
        "audio": [
          {
            "route": {
              "name": "a1"
            },
            "filter": [
              {
                "type": "nlwc",
                "properties": {
                  "WatermarkApplicationType": 0,
                  "ProcessType": 6,
                  "DistributionType": 1,
                  "SourceId": 7001,
                  "CheckDigits": "YG",
                  "CbetSourceId": 332340,
                  "CbetCheckDigits": "ZN",
                  "StartingTimestamp": 1541310900,
                  "TimeOffsetHours": -6,
                  "DestinationDstState": true,
                  "BroadcastDelayTime": 0,
                  "ApplicationName": "Transform",
                  "ApplicationVersion": "2021-11-001",
                  "ClientName": "Blender",
                  "AssetName": "Big Buck Bunny"
                }
              },
              {
                "type": "nwmd",
                "properties": {
                  "InputFileName": "Output/Watermarking/Linear/Time Offset -2hrs - DST ON - EDT 11-04-18 1_55AM/BigBuckBunny10mins-stereo24b_N2NWCB_FD7001_L51234_ST.wav"
                }
              }
            ]
          }
        ]
      }
    ]
  }
}