{
  "input": {
    "container": [
      {
        "name": "input-1",
        "video": [
          {
            "name": "v1"
          }
        ]
      }
    ]
  },
  "output": {
    "container": [
      {
        "type": "mov ",
        "name": "output-1",
        "video": [
          {
            "name": "v2",
            "route": {
              "name": "v1"
            },
            "mask": {
              "left": 100,
              "top": 50,
              "bottom": 50,
              "right": 100
            },
            "encode": {
              "type": "appr",
              "properties": {
                "OutputFormat": "apcn"
              }
            }
          }
        ]
      }
    ]
  }
}