{
  "input": {
    "container": [
      {
        "name": "in-con",
        "audio": [
          {
            "name": "a1",
            "channels": 8
          }
        ],
        "video": [
          {
            "name": "v1",
            "detach": [
              {
                "type": "time"
              }
            ]
          }
        ]
      }
    ]
  },
  "output": {
    "container": [
      {
        "properties": {
          "DataContainer": "anc "
        },
        "type": "op1a",
        "name": "out-con",
        "audio": [
          {
            "format": "sowt",
            "name": "a2",
            "sample_rate": {
              "denominator": 1,
              "numerator": 48000
            },
            "route": {
              "name": "a1"
            }
          }
        ],
        "video": [
          {
            "name": "v2",
            "sample_rate": {
              "denominator": 1001,
              "numerator": 30000
            },
            "field_order": 2,
            "height": 1080,
            "pixel_aspect_ratio": {
              "denominator": 1,
              "numerator": 1
            },
            "width": 1920,
            "color_primaries": 1,
            "matrix_coefficients": 1,
            "transfer_characteristics": 1,
            "encode": {
              "properties": {
                "Level": 4,
                "OutputFormat": "xd5b",
                "Profile": 7
              },
              "type": "mcm2"
            },
            "route": {
              "name": "v1"
            },
            "attach": [
              {
                "root": "mxfs",
                "type": "time"
              },
              {
                "root": "mxfm",
                "type": "time"
              },
              {
                "root": "gopt",
                "type": "time"
              },
              {
                "root": "anct",
                "type": "time"
              },
              {
                "root": "mxfa",
                "type": "anct"
              }
            ]
          }
        ]
      }
    ]
  }
}