{
  "input": {
    "container": [
      {
        "name": "input1",
        "audio": [],
        "video": [
          {
            "name": "v1",
            "detach": [
              {
                "type": "time"
              }
            ]
          }
        ]
      }
    ]
  },
  "output": {
    "package": [
      {
        "type": "hls ",
        "name": "p1",
        "properties": {
          "SegmentDuration": 6
        },
        "container": [
          {
            "type": "mpg2",
            "name": "out",
            "video": [
              {
                "name": "v2",
                "overlay": [
                  {
                    "name": "v1"
                  },
                  {
                    "name": "v1",
                    "filter": [
                      {
                        "type": "tcbm",
                        "properties": {
                          "FrameDuration": 1001,
                          "TimeScale": 30000,
                          "BitmapWidth": 250,
                          "BitmapHeight": 50,
                          "FontSize": 18,
                          "StringForegroundColor": "red",
                          "RegionBackgroundColor": "green"
                        }
                      },
                      {
                        "type": "bmvc",
                        "properties": {
                          "FrameDuration": 1001,
                          "TimeScale": 30000
                        }
                      }
                    ]
                  }
                ],
                "encode": {
                  "type": "h264",
                  "properties": {
                    "BitRate": 3500000,
                    "OpenGop": false,
                    "FixedIdrFrameInterval": 180,
                    "RateControlMethod": 2,
                    "NalHrdMode": 2,
                    "AdaptiveBFrames": false,
                    "NumBFrames": 2,
                    "Level": 42,
                    "Profile": "high"
                  }
                },
                "width": 1280,
                "height": 720,
                "sample_rate": {
                  "numerator": 30000,
                  "denominator": 1001
                }
              }
            ],
            "audio": []
          }
        ]
      }
    ]
  }
}