{
  "input": {
    "container": [
      {
        "type": "sigg",
        "name": "input-1",
        "audio": [
          {
            "name": "a1"
          }
        ]
      }
    ]
  },
  "output": {
    "container": [
      {
        "type": "prop",
        "name": "output-1",
        "audio": [
          {
            "name": "a2",
            "route": {
              "name": "a1"
            },
            "encode": {
              "type": "opus",
              "properties": {
                "BitRate": 32000,
                "Complexity": 1
              }
            }
          }
        ]
      }
    ]
  }
}