{
  "input": {
    "container": [
      {
        "name": "input-1",
        "audio": [],
        "subtitle": [],
        "video": [
          {
            "name": "v1",
            "detach": [
              {
                "type": "c708",
                "root": "a72c"
              }
            ]
          }
        ]
      }
    ]
  },
  "output": {
    "container": [
      {
        "type": "scc ",
        "name": "output-1",
        "audio": [],
        "video": [],
        "subtitle": [
          {
            "route": {
              "name": "v1"
            },
            "filter": [
              {
                "type": "ccsc",
                "properties": {
                  "OutputFormat": "c708"
                }
              },
              {
                "properties": {
                  "OutputFormat": "scc ",
                  "SccOutputField": 1
                },
                "type": "ciem"
              }
            ]
          }
        ]
      }
    ]
  }
}