{
  "input": {
    "segment": [
      {
        "container": [
          {
            "name": "input1",
            "start": "00:00:01;00",
            "end": "00:00:07;00",
            "audio": [
              {
                "name": "a1",
                "select": {
                  "channel": [
                    1,
                    2,
                    3,
                    4,
                    5,
                    6,
                    7,
                    8,
                    9,
                    10
                  ]
                }
              }
            ],
            "subtitle": [],
            "video": [
              {
                "name": "v1"
              }
            ]
          }
        ]
      },
      {
        "container": [
          {
            "name": "input2",
            "start": "00:00:10;00",
            "end": "00:00:14;00",
            "audio": [
              {
                "name": "a1",
                "select": {
                  "channel": [
                    1,
                    2,
                    3,
                    4,
                    5,
                    6,
                    7,
                    8,
                    9,
                    10
                  ]
                }
              }
            ],
            "subtitle": [],
            "video": [
              {
                "name": "v1"
              }
            ]
          }
        ]
      }
    ]
  },
  "output": {
    "container": [
      {
        "type": "m2ts",
        "name": "output",
        "audio": [
          {
            "channels": 2,
            "encode": {
              "type": "mc2a",
              "properties": {
                "Format": "mc2a",
                "BitRate": 256000,
                "Version": 1,
                "Layer": 2
              }
            },
            "route": {
              "channel": [
                {
                  "name": "a1",
                  "channel": 1
                },
                {
                  "name": "a1",
                  "channel": 2
                }
              ]
            }
          },
          {
            "channels": 2,
            "encode": {
              "type": "mc2a",
              "properties": {
                "BitRate": 256000,
                "Version": 1,
                "Layer": 2
              }
            },
            "route": {
              "channel": [
                {
                  "name": "a1",
                  "channel": 3
                },
                {
                  "name": "a1",
                  "channel": 4
                }
              ]
            }
          },
          {
            "channels": 6,
            "encode": {
              "type": "mcac",
              "properties": {
                "Format": "aac ",
                "BitRate": 384000,
                "Profile": "lc"
              }
            },
            "route": {
              "channel": [
                {
                  "name": "a1",
                  "channel": 5
                },
                {
                  "name": "a1",
                  "channel": 6
                },
                {
                  "name": "a1",
                  "channel": 7
                },
                {
                  "name": "a1",
                  "channel": 8
                },
                {
                  "name": "a1",
                  "channel": 9
                },
                {
                  "name": "a1",
                  "channel": 10
                }
              ]
            }
          }
        ],
        "subtitle": [],
        "video": [
          {
            "width": 1920,
            "height": 1080,
            "sample_rate": {
              "denominator": 1001,
              "numerator": 30000
            },
            "encode": {
              "type": "h264",
              "properties": {
                "BitRate": 12100000,
                "Profile": "high",
                "Level": 40,
                "MaxReferenceFrames": 4,
                "RateControlMethod": 2,
                "NalHrdMode": 2
              }
            },
            "filter": [
              {
                "properties": {
                  "SourceInserters": [
                    {
                      "Type": "xdsi"
                    }
                  ],
                  "Deformatters": [
                    {
                      "To": "c708",
                      "From": "mxfa"
                    }
                  ],
                  "XdsVchipRate": "100",
                  "XdsVchipRating": "PG",
                  "XdsVchipType": "MPA"
                },
                "type": "mplm"
              }
            ],
            "attach": [
              {
                "type": "c708",
                "root": "a72c"
              }
            ],
            "route": {
              "name": "v1"
            }
          }
        ]
      }
    ]
  }
}