{
  "input": {
    "container": [
      {
        "name": "Input",
        "audio": [
          {
            "name": "Audio Stream 1",
            "channels": 2
          }
        ],
        "subtitle": [],
        "video": [
          {
            "name": "Video Stream 1"
          }
        ]
      }
    ]
  },
  "output": {
    "container": [
      {
        "type": "atom",
        "name": "Output",
        "video": [
          {
            "route": {
              "name": "Video Stream 1"
            },
            "encode": {
              "type": "adnh",
              "properties": {
                "CompressionId": 1253,
                "OutputFormat": "AVdn"
              }
            }
          }
        ],
        "audio": [
          {
            "channels": 1,
            "route": {
              "channel": [
                {
                  "channel": 1,
                  "name": "Audio Stream 1"
                }
              ]
            },
            "format": "42ni"
          },
          {
            "channels": 1,
            "route": {
              "channel": [
                {
                  "channel": 2,
                  "name": "Audio Stream 1"
                }
              ]
            },
            "format": "42ni"
          }
        ],
        "subtitle": []
      }
    ]
  }
}