{
  "input": {
    "container": [
      {
        "name": "input1",
        "audio": [],
        "video": [
          {
            "name": "v1",
            "detach": [
              {
                "type": "time",
                "root": "tfot"
              }
            ]
          }
        ]
      }
    ]
  },
  "output": {
    "container": [
      {
        "type": "op1a",
        "name": "output1",
        "audio": [],
        "video": [
          {
            "overlay": [
              {
                "name": "v1"
              },
              {
                "name": "v1",
                "filter": [
                  {
                    "type": "tcbm",
                    "properties": {
                      "FrameDuration": 1001,
                      "TimeScale": 30000,
                      "BitmapWidth": 250,
                      "BitmapHeight": 50,
                      "FontSize": 18,
                      "StringForegroundColor": "red",
                      "RegionBackgroundColor": "green"
                    }
                  },
                  {
                    "type": "bmvc",
                    "properties": {
                      "FrameDuration": 1001,
                      "TimeScale": 30000
                    }
                  }
                ]
              }
            ],
            "format": "I0AL",
            "width": 1440,
            "height": 1080,
            "field_order": 2,
            "sample_rate": {
              "denominator": 1001,
              "numerator": 30000
            },
            "pixel_aspect_ratio": {
              "denominator": 3,
              "numerator": 4
            },
            "encode": {
              "properties": {
                "Constraint": 1,
                "OutputFormat": "ai56"
              },
              "type": "n264"
            }
          }
        ]
      }
    ]
  }
}