{
  "input": {
    "container": [
      {
        "name": "input1",
        "audio": [
          {
            "name": "stereo",
            "channels": 2,
            "select": {
              "channel": [
                {
                  "label": "L"
                },
                {
                  "label": "R"
                }
              ]
            }
          },
          {
            "name": "mono",
            "channels": 1,
            "select": {
              "channel": [
                {
                  "label": "C"
                }
              ]
            }
          }
        ],
        "video": []
      }
    ]
  },
  "output": {
    "container": [
      {
        "name": "output1",
        "type": "mp4 ",
        "audio": [
          {
            "route": {
              "name": "stereo"
            }
          },
          {
            "route": {
              "name": "mono"
            }
          }
        ]
      }
    ]
  }
}