{
  "input": {
    "container": [
      {
        "name": "input-1",
        "start": "00:00:01:00",
        "duration": "00:00:02:00",
        "video": [
          {
            "name": "v1"
          }
        ],
        "audio": [
          {
            "name": "a1"
          }
        ],
        "properties": {
          "Timebase": "zero"
        }
      }
    ]
  },
  "output": {
    "container": [
      {
        "type": "mov ",
        "name": "output-1",
        "video": [
          {
            "name": "v1",
            "route": {
              "name": "v1"
            }
          }
        ],
        "audio": [
          {
            "name": "a1",
            "route": {
              "name": "a1"
            }
          }
        ]
      }
    ]
  }
}