{
  "input": {
    "container": [
      {
        "type": "mp4 ",
        "video": [
          {
            "name": "v1"
          }
        ],
        "audio": [
          {
            "name": "a1"
          }
        ]
      }
    ]
  },
  "output": {
    "package": [
      {
        "type": "dash",
        "name": "p1",
        "properties": {
          "FragmentDuration": 2,
          "SegmentDuration": 4,
          "AddInitializationSegment": false
        },
        "video": [
          {
            "name": "v2",
            "route": {
              "name": "v1"
            },
            "encode": {
              "type": "h265",
              "properties": {
                "BitRate": 4000000,
                "OpenGop": false,
                "FixedIdrFrameInterval": 96,
                "RateControlMethod": 3,
                "AdaptiveBFrameScheduling": false,
                "MaxBFrames": 2,
                "Level": 51,
                "Profile": 1,
                "BufferDelay": 1
              }
            },
            "width": 1280,
            "height": 720,
            "sample_rate": {
              "numerator": 24,
              "denominator": 1
            }
          }
        ],
        "audio": [
          {
            "name": "a2",
            "route": {
              "name": "a1"
            },
            "encode": {
              "type": "mcac",
              "properties": {
                "BitRate": 128000
              }
            },
            "sample_rate": {
              "numerator": 48000,
              "denominator": 1
            }
          }
        ],
        "container": [
          {
            "type": "mpg4",
            "name": "out",
            "properties": {
              "OutputSingleFile": false
            },
            "video": [
              {
                "route": {
                  "name": "v2"
                }
              }
            ],
            "audio": [
              {
                "route": {
                  "name": "a2"
                }
              }
            ]
          }
        ]
      }
    ]
  }
}