{
  "input": {
    "container": [
      {
        "name": "input-1",
        "subtitle": [
          {
            "name": "s1"
          }
        ]
      }
    ]
  },
  "output": {
    "container": [
      {
        "type": "scc ",
        "name": "output-1",
        "subtitle": [
          {
            "route": {
              "name": "s1"
            },
            "filter": [
              {
                "properties": {
                  "OutputFormat": "scc "
                },
                "type": "ciem"
              }
            ]
          }
        ]
      }
    ]
  }
}