{
  "input": {
    "container": [
      {
        "name": "input1",
        "audio": [
          {
            "name": "surround",
            "channels": 6,
            "select": {
              "channel": [
                1,
                2,
                3,
                4,
                5,
                6
              ]
            }
          },
          {
            "name": "stereo",
            "channels": 2,
            "select": {
              "channel": [
                7,
                8
              ]
            }
          }
        ]
      }
    ]
  },
  "output": {
    "container": [
      {
        "name": "output1",
        "type": "mp4 ",
        "audio": [
          {
            "name": "surround"
          }
        ]
      },
      {
        "name": "output2",
        "type": "mp4 ",
        "audio": [
          {
            "name": "stereo"
          }
        ]
      }
    ]
  }
}