{
  "input": {
    "segment": [
      {
        "container": [
          {
            "name": "input-1",
            "video": [
              {
                "name": "v1",
                "head": {
                  "duration": 1.0,
                  "opacity": 0.0
                },
                "body": {
                  "opacity": 1.0
                },
                "tail": {
                  "duration": 1.0,
                  "opacity": 0.0
                }
              }
            ],
            "audio": [
              {
                "name": "a1",
                "head": {
                  "duration": 1.0,
                  "volume": 0.0
                },
                "body": {
                  "volume": 1.0
                },
                "tail": {
                  "duration": 1.0,
                  "volume": 0.0
                }
              }
            ]
          }
        ]
      }
    ]
  },
  "output": {
    "container": [
      {
        "type": "mp4 ",
        "name": "output-1",
        "video": [
          {
            "name": "v2",
            "route": {
              "name": "v1"
            },
            "width": 1280,
            "height": 720
          }
        ],
        "audio": [
          {
            "name": "a2",
            "route": {
              "name": "a1"
            },
            "volume": 1
          }
        ]
      }
    ]
  }
}