{
  "input": {
    "container": [
      {
        "name": "mp4",
        "video": [
          {
            "name": "v1"
          }
        ]
      },
      {
        "name": "scc",
        "subtitle": [
          {
            "name": "s1"
          }
        ]
      }
    ]
  },
  "output": {
    "container": [
      {
        "name": "out",
        "type": "mov ",
        "video": [
          {
            "width": 720,
            "height": 512,
            "format": "UYVY",
            "route": {
              "name": "v1"
            },
            "merge": {
              "name": "s1",
              "filter": [
                {
                  "type": "sccc",
                  "properties": {
                    "SccFieldType": "c618"
                  }
                }
              ]
            },
            "attach": [
              {
                "type": "c618",
                "root": "vbi "
              }
            ],
            "encode": {
              "type": "appr",
              "properties": {
                "OutputFormat": "apcn"
              }
            }
          }
        ],
        "audio": [],
        "subtitle": []
      }
    ]
  }
}