{
  "input": {
    "container": [
      {
        "name": "input",
        "video": [
          {
            "name": "v1",
            "detach": [
              {
                "type": "c708"
              }
            ]
          }
        ],
        "audio": [],
        "subtitle": []
      }
    ]
  },
  "output": {
    "container": [
      {
        "type": "mcc ",
        "name": "output",
        "subtitle": [
          {
            "name": "s1",
            "route": {
              "name": "v1"
            },
            "filter": [
              {
                "properties": {
                  "OutputFormat": "c708"
                },
                "type": "ccsc"
              },
              {
                "properties": {
                  "OutputFormat": "c708",
                  "FrameDuration": 1001,
                  "TimeScale": 30000
                },
                "type": "ciem"
              },
              {
                "type": "sccc"
              }
            ]
          }
        ],
        "audio": [],
        "video": []
      }
    ]
  }
}