{
  "input": {
    "container": [
      {
        "name": "input-1",
        "video": [
          {
            "name": "v1",
            "detach": [
              {
                "type": "c708"
              }
            ]
          }
        ],
        "audio": [
          {
            "name": "a1"
          }
        ]
      }
    ]
  },
  "output": {
    "container": [
      {
        "name": "output-1",
        "type": "m2ps",
        "video": [
          {
            "encode": {
              "type": "mcm2",
              "properties": {
                "OutputFormat": "mp2v",
                "Profile": 4,
                "Level": 4
              }
            },
            "overlay": [
              {
                "name": "v1"
              },
              {
                "name": "v1",
                "filter": [
                  {
                    "type": "ccsc",
                    "properties": {
                      "OutputFormat": "c708"
                    }
                  },
                  {
                    "type": "ccbm",
                    "properties": {
                      "Immediate": true
                    }
                  },
                  {
                    "type": "bmvc",
                    "properties": {
                      "VariableFrameDuration": false
                    }
                  }
                ]
              }
            ]
          }
        ],
        "audio": [
          {
            "name": "a2",
            "route": {
              "name": "a1"
            },
            "encode": {
              "type": "mc2a",
              "properties": {
                "OutputFormat": "mpga"
              }
            }
          }
        ]
      }
    ]
  }
}