{
  "input": {
    "container": [
      {
        "name": "input1",
        "video": [
          {
            "name": "v1"
          }
        ],
        "audio": [
          {
            "name": "a1"
          }
        ]
      }
    ]
  },
  "output": {
    "container": [
      {
        "type": "op1a",
        "name": "output1",
        "video": [
          {
            "name": "v2",
            "route": {
              "name": "v1"
            },
            "filter": [
              {
                "type": "iffc"
              }
            ],
            "properties": {
              "Format": "xdcam_hd_1080i50"
            }
          }
        ],
        "audio": [
          {
            "name": "a2",
            "route": {
              "name": "a1"
            },
            "sample_rate": {
              "numerator": 44100,
              "denominator": 1
            },
            "properties": {
              "Format": "pcm_24int_little"
            }
          }
        ]
      }
    ]
  }
}