{
  "input": {
    "container": [
      {
        "name": "input-1",
        "video": [
          {
            "name": "v1"
          }
        ]
      }
    ]
  },
  "output": {
    "container": [
      {
        "type": "prop",
        "name": "output-1",
        "properties": {
          "EmitLastSampleOnly": true
        },
        "video": [
          {
            "name": "v1",
            "route": {
              "name": "v1"
            },
            "filter": [
              {
                "type": "llan",
                "properties": {
                  "TopMargin": 56,
                  "BottomMargin": 56,
                  "LeftMargin": 112,
                  "RightMargin": 112
                }
              }
            ]
          }
        ]
      }
    ]
  }
}