{
  "input": {
    "container": [
      {
        "name": "main-input",
        "audio": [
          {
            "name": "a1",
            "channels": 2,
            "label": [
              "L",
              "R"
            ]
          }
        ],
        "video": [
          {
            "name": "v1"
          }
        ]
      },
      {
        "name": "sidecar-input",
        "subtitle": [
          {
            "name": "s1"
          }
        ]
      }
    ]
  },
  "output": {
    "container": [
      {
        "type": "mp4 ",
        "name": "output",
        "audio": [
          {
            "name": "a2",
            "route": {
              "name": "a1"
            }
          }
        ],
        "video": [
          {
            "name": "v2",
            "route": {
              "name": "v1"
            },
            "merge": {
              "name": "s1",
              "filter": [
                {
                  "properties": {
                    "CaptionDataStartFrame": 24,
                    "CaptionOutputFrameRate": 23.976,
                    "CaptionRetimeRate": 1,
                    "OutputFormat": "c708",
                    "StartFrame": 0,
                    "StartingTimecodeMode": 0
                  },
                  "type": "ciem"
                },
                {
                  "type": "sccc"
                }
              ]
            },
            "attach": [
              {
                "root": "a72c",
                "type": "c708"
              }
            ]
          }
        ],
        "subtitle": []
      }
    ]
  }
}