{
  "input": {
    "container": [
      {
        "name": "input-1",
        "video": [
          {
            "name": "v1",
            "detach": [
              {
                "type": "c708"
              }
            ]
          }
        ],
        "audio": [
          {
            "name": "a1"
          }
        ]
      }
    ]
  },
  "output": {
    "container": [
      {
        "name": "output-1",
        "type": "m2ps",
        "video": [
          {
            "name": "v2",
            "route": {
              "name": "v1"
            },
            "attach": [
              {
                "root": "a72c",
                "type": "c708"
              }
            ]
          }
        ],
        "audio": [
          {
            "name": "a2",
            "route": {
              "name": "a1"
            }
          }
        ]
      }
    ]
  }
}