{
  "input": {
    "container": [
      {
        "name": "input-1",
        "video": [
          {
            "name": "v1"
          }
        ]
      }
    ]
  },
  "output": {
    "container": [
      {
        "type": "mov ",
        "name": "output-1",
        "video": [
          {
            "name": "v2",
            "route": {
              "name": "v1"
            },
            "encode": {
              "properties": {
                "OutputFormat": "apcn"
              },
              "type": "appr"
            },
            "filter": [
              {
                "type": "cfcs",
                "properties": {
                  "ColorSpace": 2
                }
              },
              {
                "type": "vfc ",
                "properties": {
                  "OutputFormat": "v216",
                  "MatrixCoefficients": 9
                }
              }
            ]
          }
        ]
      }
    ]
  }
}