{
  "input": {
    "container": [
      {
        "name": "sidecar-input-1",
        "subtitle": [
          {
            "name": "s1"
          }
        ]
      },
      {
        "name": "sidecar-input-2",
        "subtitle": [
          {
            "name": "s2"
          }
        ]
      }
    ]
  },
  "output": {
    "container": [
      {
        "type": "scc ",
        "name": "output",
        "subtitle": [
          {
            "combine": {
              "type": "cfic",
              "stream": [
                {
                  "name": "s1",
                  "filter": [
                    {
                      "type": "ciem",
                      "properties": {
                        "OutputFormat": "scc "
                      }
                    }
                  ],
                  "properties": {
                    "SourceTrack": 0,
                    "SourceChannel": 0,
                    "SourceField": 0,
                    "OutputChannel": 0,
                    "OutputService": 0,
                    "Language": "eng"
                  }
                },
                {
                  "name": "s2",
                  "filter": [
                    {
                      "type": "ciem",
                      "properties": {
                        "OutputFormat": "scc "
                      }
                    }
                  ],
                  "properties": {
                    "SourceTrack": 1,
                    "SourceChannel": 0,
                    "SourceField": 0,
                    "OutputChannel": 1,
                    "OutputService": 1,
                    "Language": "fre"
                  }
                }
              ]
            }
          }
        ]
      }
    ]
  }
}