{
  "input": {
    "container": [
      {
        "name": "input-1",
        "video": [
          {
            "name": "v1"
          }
        ],
        "audio": [
          {
            "name": "a1"
          }
        ],
        "subtitle": [
          {
            "name": "s1"
          }
        ]
      }
    ]
  },
  "output": {
    "container": [
      {
        "type": "vtt ",
        "name": "output-1",
        "video": [],
        "audio": [],
        "subtitle": [
          {
            "route": {
              "name": "s1"
            },
            "properties": {
              "Format": "vtt"
            }
          }
        ]
      }
    ]
  }
}