{
  "input": {
    "container": [
      {
        "name": "input",
        "audio": [
          {
            "name": "a1"
          }
        ],
        "subtitle": [],
        "video": [
          {
            "name": "v1"
          }
        ]
      }
    ]
  },
  "output": {
    "container": [
      {
        "type": "mp4 ",
        "name": "output",
        "audio": [
          {
            "route": {
              "name": "a1"
            },
            "language": "spa"
          }
        ],
        "subtitle": [],
        "video": [
          {
            "route": {
              "name": "v1"
            },
            "language": "spa"
          }
        ]
      }
    ]
  }
}