{
  "input": {
    "container": [
      {
        "name": "input-1",
        "video": [
          {
            "name": "v1"
          }
        ],
        "audio": [
          {
            "name": "a1"
          }
        ]
      },
      {
        "name": "in-2",
        "subtitle": [
          {
            "name": "s1"
          }
        ]
      }
    ]
  },
  "output": {
    "container": [
      {
        "type": "mp4 ",
        "name": "output-1",
        "video": [
          {
            "name": "v2",
            "route": {
              "name": "v1"
            },
            "width": 1920,
            "height": 1080,
            "sample_rate": {
              "numerator": 30000,
              "denominator": 1001
            },
            "attach": [
              {
                "root": "a72c",
                "type": "c708"
              }
            ],
            "merge": {
              "name": "s1",
              "filter": [
                {
                  "properties": {
                    "OutputFormat": "c708"
                  },
                  "type": "ciem"
                },
                {
                  "type": "sccc"
                }
              ]
            },
            "encode": {
              "type": "h264",
              "properties": {
                "OutputFormat": "avc1"
              }
            }
          }
        ],
        "audio": [
          {
            "name": "a2",
            "route": {
              "name": "a1"
            },
            "sample_rate": {
              "numerator": 44100,
              "denominator": 1
            },
            "encode": {
              "type": "mcac",
              "properties": {
                "Profile": 5,
                "OutputFormat": "mp4a"
              }
            }
          }
        ],
        "subtitle": []
      }
    ]
  }
}