{
  "input": {
    "container": [
      {
        "name": "input-1",
        "audio": [
          {
            "name": "surround"
          }
        ]
      }
    ]
  },
  "output": {
    "container": [
      {
        "type": "m2ts",
        "name": "output-1",
        "audio": [
          {
            "name": "stereo",
            "channels": 2,
            "label": [
              "L",
              "R"
            ],
            "mix": [
              {
                "name": "surround",
                "level": 1,
                "channel": [
                  {
                    "channel": 2
                  },
                  {
                    "channel": 3
                  }
                ]
              },
              {
                "name": "surround",
                "level": 0.707107,
                "channel": [
                  {
                    "channel": 1
                  },
                  {
                    "channel": 1
                  }
                ]
              },
              {
                "name": "surround",
                "level": 0.707107,
                "channel": [
                  {
                    "channel": 6
                  },
                  {
                    "channel": 6
                  }
                ]
              },
              {
                "name": "surround",
                "phase": -90,
                "channel": [
                  {
                    "channel": 4,
                    "level": 0.87178
                  },
                  {
                    "channel": 4,
                    "level": 0.489898
                  }
                ]
              },
              {
                "name": "surround",
                "phase": 90,
                "channel": [
                  {
                    "channel": 5,
                    "level": 0.489898
                  },
                  {
                    "channel": 5,
                    "level": 0.87178
                  }
                ]
              }
            ],
            "encode": {
              "type": "mcac"
            }
          }
        ]
      }
    ]
  }
}