{
  "input": {
    "container": [
      {
        "name": "input-1",
        "video": [
          {
            "name": "v1"
          }
        ]
      }
    ]
  },
  "output": {
    "container": [
      {
        "name": "output-1",
        "type": "mov ",
        "video": [
          {
            "name": "v1",
            "width": 720,
            "height": 576,
            "sample_rate": {
              "numerator": 25,
              "denominator": 1
            }
          }
        ]
      }
    ]
  }
}