{
  "input": {
    "container": [
      {
        "name": "Input",
        "audio": [
          {
            "name": "a1"
          }
        ],
        "subtitle": [],
        "video": []
      }
    ]
  },
  "output": {
    "container": [
      {
        "type": "mp4 ",
        "name": "Output",
        "audio": [
          {
            "name": "a2",
            "properties": {
              "Format": "ac3"
            },
            "sample_rate": {
              "denominator": 1,
              "numerator": 48000
            },
            "label": [
              "L",
              "C",
              "R",
              "LFE"
            ],
            "channels": 4,
            "encode": {
              "properties": {
                "AudioCodingMode": 3,
                "EnableLowFrequencyEffects": true,
                "AnalogToDigitalConverterType": 0,
                "BitRate": 256000,
                "BitstreamMode": 0,
                "CopyrightProtected": true,
                "DialogNormalization": 24,
                "DrcLineModeProfile": 1,
                "DrcRfModeProfile": 1,
                "EnableLfeLowPassFilter": false,
                "LoRoCenterMixLevel": 4,
                "LtRtCenterMixLevel": 4,
                "OriginalBitstream": true,
                "RoomType": 0,
                "StereoDownmixPreference": 0
              }
            },
            "route": {
              "name": "a1",
              "channel": [
                1,
                2,
                0,
                0
              ]
            }
          }
        ],
        "subtitle": [],
        "video": []
      }
    ]
  }
}