{
  "input": {
    "container": [
      {
        "type": "mp4 ",
        "video": [
          {
            "name": "v1"
          }
        ],
        "audio": [
          {
            "name": "a1"
          }
        ]
      }
    ]
  },
  "output": {
    "package": [
      {
        "type": "hls ",
        "name": "p1",
        "properties": {
          "SegmentDuration": 3
        },
        "container": [
          {
            "type": "mpg2",
            "name": "video",
            "video": [
              {
                "name": "v2",
                "route": {
                  "name": "v1"
                },
                "encode": {
                  "type": "h264",
                  "properties": {
                    "BitRate": 400000,
                    "OpenGop": false,
                    "FixedIdrFrameInterval": 45,
                    "RateControlMethod": 2,
                    "NalHrdMode": 2,
                    "AdaptiveBFrames": false,
                    "NumBFrames": 2,
                    "Level": 42,
                    "Profile": "high"
                  }
                },
                "width": 480,
                "height": 270,
                "sample_rate": {
                  "numerator": 15000,
                  "denominator": 1001
                }
              }
            ]
          },
          {
            "type": "mpg2",
            "name": "audio",
            "audio": [
              {
                "name": "a2",
                "route": {
                  "name": "a1"
                },
                "encode": {
                  "type": "mcac",
                  "properties": {
                    "Profile": 5,
                    "BitRate": 64000
                  }
                },
                "sample_rate": {
                  "numerator": 48000,
                  "denominator": 1
                }
              }
            ]
          }
        ]
      }
    ]
  }
}