{
  "input": {
    "container": [
      {
        "name": "c1",
        "video": [
          {
            "name": "v1"
          }
        ],
        "audio": [
          {
            "name": "a1"
          }
        ]
      },
      {
        "name": "c2",
        "subtitle": [
          {
            "name": "s1"
          }
        ]
      }
    ]
  },
  "output": {
    "container": [
      {
        "name": "c2",
        "type": "m2ts",
        "video": [
          {
            "name": "v2",
            "route": {
              "name": "v1"
            },
            "encode": {
              "type": "mcm2",
              "properties": {
                "OutputFormat": "mp2v",
                "Profile": 4,
                "Level": 4
              }
            }
          }
        ],
        "audio": [
          {
            "name": "a2",
            "route": {
              "name": "a1"
            },
            "encode": {
              "type": "mc2a",
              "properties": {
                "OutputFormat": "mpga"
              }
            }
          }
        ],
        "subtitle": [
          {
            "name": "s2",
            "route": {
              "name": "s1"
            },
            "filter": [
              {
                "type": "ciem",
                "properties": {
                  "OutputFormat": "dvbs"
                }
              }
            ]
          }
        ]
      }
    ]
  }
}