{
  "composition": {
    "input": {
      "container": [
        {
          "audio": [
            {
              "name": "a1"
            }
          ],
          "name": "input",
          "settings": {
            "kind": "media",
            "reference": true
          },
          "subtitle": [],
          "video": [
            {
              "name": "v1"
            }
          ]
        }
      ],
      "reference": "input"
    },
    "output": {
      "container": [
        {
          "audio": [
            {
              "name": "a1",
              "properties": {
                "Format": "pcm_24int_little"
              },
              "route": {
                "name": "a1"
              }
            }
          ],
          "name": "output",
          "type": "op1a",
          "video": [
            {
              "encode": {
                "properties": {
                  "Constraint": 112
                },
                "type": "n264"
              },
              "field_order": 1,
              "height": 1080,
              "name": "v1",
              "route": {
                "name": "v1"
              },
              "sample_rate": {
                "denominator": 1,
                "numerator": 25
              },
              "width": 1920
            }
          ]
        }
      ]
    }
  },
  "inputs": {
    "input": {
      "url": ""
    }
  },
  "outputs": {
    "output": {
      "path_format": "$original$.mxf"
    }
  }
}