{
  "composition": {
    "input": {
      "container": [
        {
          "audio": [
            {
              "name": "a1"
            },
            {
              "name": "a2"
            },
            {
              "name": "a3"
            },
            {
              "name": "a4"
            },
            {
              "name": "a5"
            },
            {
              "name": "a6"
            },
            {
              "name": "a7"
            },
            {
              "name": "a8"
            }
          ],
          "name": "input1",
          "video": [
            {
              "name": "v1"
            }
          ]
        }
      ]
    },
    "output": {
      "container": [
        {
          "audio": [
            {
              "name": "a1",
              "properties": {
                "Format": "pcm_24int_little"
              },
              "route": {
                "name": "a1"
              }
            },
            {
              "name": "a2",
              "properties": {
                "Format": "pcm_24int_little"
              },
              "route": {
                "name": "a2"
              }
            },
            {
              "name": "a3",
              "properties": {
                "Format": "pcm_24int_little"
              },
              "route": {
                "name": "a3"
              }
            },
            {
              "name": "a4",
              "properties": {
                "Format": "pcm_24int_little"
              },
              "route": {
                "name": "a4"
              }
            },
            {
              "name": "a5",
              "properties": {
                "Format": "pcm_24int_little"
              },
              "route": {
                "name": "a5"
              }
            },
            {
              "name": "a6",
              "properties": {
                "Format": "pcm_24int_little"
              },
              "route": {
                "name": "a6"
              }
            },
            {
              "name": "a7",
              "properties": {
                "Format": "pcm_24int_little"
              },
              "route": {
                "name": "a7"
              }
            },
            {
              "name": "a8",
              "properties": {
                "Format": "pcm_24int_little"
              },
              "route": {
                "name": "a8"
              }
            }
          ],
          "name": "output1",
          "type": "op1a",
          "video": [
            {
              "encode": {
                "properties": {
                  "CompressionId": "1242",
                  "OutputFormat": "AVdn"
                },
                "type": "adnh"
              },
              "height": 1080,
              "route": {
                "name": "v1"
              },
              "width": 1920
            }
          ]
        }
      ]
    }
  },
  "inputs": {
    "input1": {
      "url": ""
    }
  },
  "outputs": {
    "output1": {
      "path_format": "$original$.mxf"
    }
  }
}