{
  "input": {
    "container": [
      {
        "name": "main-input",
        "audio": [
          {
            "name": "a1"
          },
          {
            "name": "a2"
          },
          {
            "name": "a3"
          },
          {
            "name": "a4"
          }
        ],
        "video": [
          {
            "name": "v1"
          }
        ]
      },
      {
        "name": "sidecar-input-1",
        "subtitle": [
          {
            "name": "s1",
            "sample_rate": {
              "denominator": 1,
              "numerator": 25
            }
          }
        ]
      },
      {
        "name": "sidecar-input-2",
        "subtitle": [
          {
            "name": "s2",
            "sample_rate": {
              "denominator": 1,
              "numerator": 25
            }
          }
        ]
      }
    ],
    "reference": "main-input"
  },
  "output": {
    "container": [
      {
        "properties": {
          "DataContainer": "anc "
        },
        "type": "op1a",
        "name": "output",
        "audio": [
          {
            "name": "a1",
            "route": {
              "name": "a1"
            }
          },
          {
            "name": "a2",
            "route": {
              "name": "a2"
            }
          },
          {
            "name": "a3",
            "route": {
              "name": "a3"
            }
          },
          {
            "name": "a4",
            "route": {
              "name": "a4"
            }
          }
        ],
        "subtitle": [],
        "video": [
          {
            "name": "v2",
            "filter": [
              {
                "properties": {
                  "DeformatMxfAncToAnc": true,
                  "DisableFormatter": true
                },
                "type": "mplm"
              }
            ],
            "route": {
              "name": "v1"
            },
            "merge": {
              "combine": {
                "properties": {
                  "FillType": 1,
                  "OutputFormat": "ttxt",
                  "VancLine1": 13,
                  "VancLine2": 576,
                  "VbiLine1": 22,
                  "VbiLine2": 335,
                  "StartFrame": 900000
                },
                "stream": [
                  {
                    "name": "s1",
                    "properties": {
                      "Page": 777
                    }
                  },
                  {
                    "name": "s2",
                    "properties": {
                      "Page": 778
                    }
                  }
                ],
                "type": "txfi"
              }
            }
          }
        ]
      }
    ]
  }
}