{
  "input": {
    "container": [
      {
        "name": "input-1",
        "video": [
          {
            "name": "v1"
          }
        ],
        "audio": [
          {
            "name": "a1",
            "label": [
              "L"
            ]
          },
          {
            "name": "a2",
            "label": [
              "R"
            ]
          }
        ]
      }
    ]
  },
  "output": {
    "container": [
      {
        "type": "mov ",
        "name": "output-1",
        "video": [
          {
            "name": "v1",
            "route": {
              "name": "v1"
            },
            "encode": {
              "type": "appr",
              "properties": {
                "OutputFormat": "apcn"
              }
            }
          }
        ],
        "audio": [
          {
            "name": "a1",
            "channels": 1,
            "route": {
              "name": "a1"
            },
            "format": "twos",
            "sample_rate": {
              "numerator": 32000,
              "denominator": 1
            }
          },
          {
            "name": "a2",
            "channels": 1,
            "route": {
              "name": "a2"
            },
            "format": "twos",
            "sample_rate": {
              "numerator": 32000,
              "denominator": 1
            }
          }
        ]
      }
    ]
  }
}