{
  "input": {
    "container": [
      {
        "name": "input",
        "video": [
          {
            "name": "v1",
            "detach": [
              {
                "type": "time",
                "root": "gopt"
              }
            ]
          }
        ]
      }
    ]
  },
  "output": {
    "container": [
      {
        "type": "mov ",
        "properties": {
          "TimeCodeMode": 1
        },
        "name": "output",
        "video": [
          {
            "name": "v2",
            "route": {
              "name": "v1"
            },
            "attach": [
              {
                "type": "time",
                "root": "movt"
              }
            ],
            "encode": {
              "properties": {
                "BitRate": 5000000,
                "Level": -1,
                "OutputFormat": "h264",
                "Profile": "main"
              },
              "type": "h264"
            }
          }
        ]
      }
    ]
  }
}