{
  "input": {
    "container": [
      {
        "name": "input-1",
        "video": [
          {
            "name": "v1"
          }
        ],
        "audio": [
          {
            "name": "a1"
          }
        ]
      }
    ]
  },
  "output": {
    "container": [
      {
        "type": "mov ",
        "name": "output-1",
        "video": [
          {
            "name": "v2",
            "route": {
              "name": "v1"
            },
            "width": 1920,
            "height": 1080,
            "sample_rate": {
              "numerator": 60000,
              "denominator": 1001
            },
            "encode": {
              "type": "appr",
              "properties": {
                "OutputFormat": "apcn"
              }
            }
          }
        ],
        "audio": [
          {
            "name": "a2",
            "route": {
              "name": "a1"
            },
            "sample_rate": {
              "numerator": 48000,
              "denominator": 1
            },
            "properties": {
              "Format": "pcm_24int_big"
            }
          }
        ]
      }
    ]
  }
}