{
  "input": {
    "container": [
      {
        "name": "in-con",
        "video": [
          {
            "name": "v1",
            "detach": [
              {
                "root": "a53a",
                "type": "afd "
              }
            ]
          }
        ],
        "audio": [
          {
            "name": "a1"
          }
        ]
      }
    ]
  },
  "output": {
    "container": [
      {
        "type": "op1a",
        "name": "out-con",
        "video": [
          {
            "name": "v2",
            "route": {
              "name": "v1"
            },
            "attach": [
              {
                "type": "afd ",
                "root": "a53a"
              }
            ],
            "width": 1920,
            "height": 1080,
            "field_order": 2,
            "matrix_coefficients": 1,
            "color_primaries": 1,
            "transfer_characteristics": 1,
            "pixel_aspect_ratio": {
              "numerator": 1,
              "denominator": 1
            },
            "encode": {
              "type": "mcm2",
              "properties": {
                "OutputFormat": "xd5b",
                "Profile": 7,
                "Level": 4
              }
            }
          }
        ],
        "audio": [
          {
            "name": "a2",
            "format": "sowt",
            "route": {
              "name": "a1"
            },
            "sample_rate": {
              "numerator": 48000,
              "denominator": 1
            }
          }
        ]
      }
    ]
  }
}