{
  "input": {
    "container": [
      {
        "name": "input",
        "properties": {
          "TrimMode": 3
        },
        "start": "02:22:22;22",
        "end": "02:23:22;22",
        "audio": [
          {
            "name": "a1"
          }
        ],
        "subtitle": [],
        "video": [
          {
            "name": "v1"
          }
        ]
      }
    ]
  },
  "output": {
    "container": [
      {
        "type": "op1a",
        "name": "output",
        "audio": [
          {
            "route": {
              "name": "a1"
            }
          }
        ],
        "subtitle": [],
        "video": [
          {
            "encode": {
              "type": "m2rc"
            },
            "route": {
              "name": "v1"
            }
          }
        ]
      }
    ]
  }
}