{
  "input": {
    "container": [
      {
        "properties": {
          "Timebase": "zero"
        },
        "settings": {
          "kind": "media",
          "reference": true
        },
        "name": "VideoInput",
        "audio": [
          {
            "name": "AudioStream1",
            "select": {
              "track": 1
            }
          }
        ],
        "video": [
          {
            "name": "VideoStream1",
            "select": {
              "track": 1
            }
          }
        ]
      }
    ],
    "reference": "VideoInput",
    "segment": [
      {
        "container": [
          {
            "settings": {
              "kind": "image"
            },
            "name": "ImageInput",
            "start": "00:00:01.000",
            "end": "00:00:04.000",
            "video": [
              {
                "name": "VideoStream2",
                "opacity": 0.5,
                "scale": {
                  "horizontal": 0.6,
                  "interpolator": "lanczos",
                  "mode": "fill",
                  "vertical": 0.4
                },
                "translate": {
                  "horizontal": 0.2,
                  "vertical": 0.5
                }
              }
            ]
          }
        ]
      }
    ]
  },
  "output": {
    "container": [
      {
        "type": "mp4 ",
        "name": "Output",
        "audio": [
          {
            "name": "AudioOutput1",
            "properties": {
              "Format": "aac"
            },
            "encode": {
              "properties": {
                "BitRate": 96000,
                "MpegVersion": 1,
                "Profile": "lc"
              }
            },
            "route": {
              "name": "AudioStream1"
            }
          }
        ],
        "video": [
          {
            "name": "VideoOutput1",
            "properties": {
              "Format": "h264"
            },
            "sample_rate": {
              "denominator": 1001,
              "numerator": 30000
            },
            "height": 720,
            "width": 1280,
            "encode": {
              "properties": {
                "Level": "Auto",
                "Profile": "main"
              }
            },
            "overlay": [
              {
                "name": "VideoStream1"
              },
              {
                "name": "VideoStream2"
              }
            ]
          }
        ]
      }
    ]
  }
}