{
  "input": {
    "container": [
      {
        "name": "Input",
        "audio": [
          {
            "name": "a1",
            "channels": 2,
            "select": {
              "channel": [
                1,
                2
              ]
            }
          }
        ],
        "subtitle": [],
        "video": [
          {
            "name": "v1"
          }
        ]
      },
      {
        "name": "SCC",
        "audio": [],
        "subtitle": [
          {
            "name": "s1"
          }
        ],
        "video": []
      }
    ],
    "reference": "Input"
  },
  "output": {
    "container": [
      {
        "type": "mzts",
        "name": "Output",
        "properties": {
          "Enable2Pass": false,
          "ErrorBehavior": 1,
          "ErrorThreshold": 1,
          "GenerateConfigFile": false,
          "Id": 0,
          "NoEmptyAdaptationFields": true,
          "PatRepetitionRate": 10,
          "PatVersion": 0,
          "PcrOnEveryPesHeader": true,
          "PcrPer": 37,
          "PcrPid": 481,
          "PmtPid": 480,
          "PmtRepetitionRate": 10,
          "ProgramNumber": 1,
          "Rate": 9000000,
          "TreatUnderflowsAsErrors": false,
          "VariableBitrate": false
        },
        "audio": [
          {
            "language": "eng",
            "name": "a1",
            "properties": {
              "Format": "ac3"
            },
            "label": [
              "L",
              "R"
            ],
            "encode": {
              "properties": {
                "AnalogToDigitalConverterType": 0,
                "AudioCodingMode": 2,
                "BitRate": 192000,
                "BitstreamMode": 0,
                "CopyrightProtected": false,
                "DialogNormalization": 27,
                "DolbySurroundMode": 2,
                "DrcLineModeProfile": 1,
                "DrcRfModeProfile": 1,
                "EnableLfeLowPassFilter": false,
                "EnableLowFrequencyEffects": false,
                "OriginalBitstream": false,
                "ThreeDecibelAttenuation": false
              }
            }
          }
        ],
        "subtitle": [],
        "video": [
          {
            "language": "eng",
            "name": "v2",
            "sample_rate": {
              "denominator": 1001,
              "numerator": 60000
            },
            "field_order": "progressive",
            "encode": {
              "type": "h262",
              "properties": {
                "AdaptiveQuantizationStrength": 1,
                "BitRate": 8400000,
                "Chroma": 1,
                "EnableBAdapt": -1,
                "EnableFastPSkip": false,
                "InterIPFrames": 3,
                "GopLength": 15,
                "CommandLine": "--max-intrab --max-intrap --nr 1 --merange 48 --filler",
                "DropFrameTc0": true,
                "IPRatio": 1.4,
                "IntraDCPrecision": 9,
                "Level": 4,
                "Lookahead": 60,
                "OpenGop": true,
                "OutputFormat": "mp2v",
                "PBRatio": 1.3,
                "Preset": 8,
                "Profile": 2,
                "RateControlMethod": 0,
                "StrictGopStructure": false,
                "Threads": 4,
                "Tune": 4,
                "VBVBufferSize": 8400000,
                "VBVInitialFill": 90,
                "VBVMaxRate": 8400000
              }
            },
            "route": {
              "name": "v1"
            },
            "filter": [
              {
                "type": "vfc ",
                "properties": {
                  "OutputFormat": "I420"
                }
              }
            ],
            "attach": [
              {
                "root": "a53c",
                "type": "c708"
              }
            ],
            "merge": {
              "name": "s1",
              "filter": [
                {
                  "properties": {
                    "OutputFormat": "c708"
                  },
                  "type": "ciem"
                },
                {
                  "type": "sccc"
                }
              ]
            }
          }
        ]
      }
    ]
  }
}