{
  "input": {
    "container": [
      {
        "name": "input-1",
        "video": [
          {
            "name": "v1",
            "video_range": 2
          }
        ]
      }
    ]
  },
  "output": {
    "container": [
      {
        "type": "mov ",
        "name": "output-1",
        "video": [
          {
            "name": "v2",
            "route": {
              "name": "v1"
            },
            "encode": {
              "properties": {
                "OutputFormat": "ap4h"
              },
              "type": "appr"
            },
            "filter": [
              {
                "type": "vcsc",
                "properties": {
                  "VideoRange": 1
                }
              }
            ]
          }
        ]
      }
    ]
  }
}