{
  "input": {
    "container": [
      {
        "name": "input-1",
        "video": [],
        "audio": [
          {
            "name": "stereo",
            "channels": 2,
            "select": {
              "track": 1,
              "label": [
                "L",
                "R"
              ]
            }
          }
        ]
      }
    ]
  },
  "output": {
    "container": [
      {
        "type": "mp4 ",
        "name": "output-1",
        "video": [],
        "audio": [
          {
            "name": "stereo",
            "route": {
              "name": "stereo"
            }
          }
        ]
      }
    ]
  }
}