{
  "input": {
    "container": [
      {
        "name": "input-1",
        "video": [
          {
            "name": "v1"
          }
        ],
        "audio": [
          {
            "name": "a1"
          },
          {
            "name": "a2"
          },
          {
            "name": "a3"
          },
          {
            "name": "a4"
          }
        ]
      }
    ]
  },
  "output": {
    "container": [
      {
        "type": "prop",
        "name": "output-1",
        "video": [
          {
            "name": "v2",
            "route": {
              "name": "v1"
            }
          }
        ],
        "audio": [
          {
            "route": {
              "name": "a1"
            }
          },
          {
            "route": {
              "name": "a2"
            }
          },
          {
            "route": {
              "name": "a3"
            }
          },
          {
            "route": {
              "name": "a4"
            }
          }
        ]
      }
    ]
  }
}