{
  "input": {
    "container": [
      {
        "name": "mainasset",
        "start": "00:00:10:00",
        "end": "00:00:20:00",
        "properties": {
          "TrimMode": 3
        },
        "audio": [
          {
            "name": "a1"
          }
        ],
        "subtitle": [],
        "video": [
          {
            "name": "v1"
          }
        ]
      }
    ]
  },
  "output": {
    "container": [
      {
        "type": "op1a",
        "name": "output",
        "audio": [
          {
            "name": "a2",
            "route": {
              "name": "a1"
            }
          }
        ],
        "subtitle": [],
        "video": [
          {
            "name": "v2",
            "route": {
              "name": "v1"
            },
            "encode": {
              "type": "m2rc"
            }
          }
        ]
      }
    ]
  }
}