{
  "input": {
    "container": [
      {
        "name": "input-1",
        "video": [
          {
            "name": "v1",
            "detach": [
              {
                "type": "c708"
              }
            ]
          }
        ],
        "audio": [
          {
            "name": "a1"
          }
        ]
      }
    ]
  },
  "output": {
    "container": [
      {
        "type": "mp4 ",
        "name": "output-1",
        "video": [
          {
            "name": "v2",
            "route": {
              "name": "v1"
            },
            "attach": [
              {
                "root": "a72c",
                "type": "c708"
              }
            ],
            "encode": {
              "type": "h264",
              "properties": {
                "OutputFormat": "avc1"
              }
            }
          }
        ],
        "audio": [
          {
            "name": "a2",
            "sample_rate": {
              "denominator": 1,
              "numerator": 48000
            },
            "encode": {
              "properties": {
                "OutputFormat": "mp4a",
                "Profile": 5
              },
              "type": "mcac"
            },
            "route": {
              "name": "a1"
            }
          }
        ],
        "subtitle": []
      }
    ]
  }
}