{
  "input": {
    "container": [
      {
        "name": "input1",
        "audio": [
          {
            "name": "track2",
            "select": {
              "track": 2
            }
          }
        ],
        "video": []
      }
    ]
  },
  "output": {
    "container": [
      {
        "name": "output1",
        "type": "mp4 ",
        "audio": [
          {
            "route": {
              "name": "track2"
            }
          }
        ]
      }
    ]
  }
}