{
  "input": {
    "container": [
      {
        "name": "input-1",
        "subtitle": [
          {
            "name": "s1"
          }
        ]
      }
    ]
  },
  "output": {
    "container": [
      {
        "type": "sdoc",
        "name": "output-1",
        "subtitle": [
          {
            "properties": {
              "Format": "stl "
            },
            "route": {
              "name": "s1"
            }
          }
        ]
      }
    ]
  }
}