{
  "input": {
    "container": [
      {
        "name": "input1",
        "audio": [],
        "video": [
          {
            "name": "v1",
            "detach": [
              {
                "type": "time",
                "root": "mxfm"
              }
            ]
          }
        ]
      }
    ]
  },
  "output": {
    "container": [
      {
        "type": "mov ",
        "name": "output1",
        "audio": [],
        "video": [
          {
            "overlay": [
              {
                "name": "v1"
              },
              {
                "name": "v1",
                "filter": [
                  {
                    "type": "tcbm",
                    "properties": {
                      "FrameDuration": 1001,
                      "TimeScale": 30000,
                      "BitmapWidth": 250,
                      "BitmapHeight": 50,
                      "FontSize": 18,
                      "StringForegroundColor": "red",
                      "RegionBackgroundColor": "green"
                    }
                  },
                  {
                    "type": "bmvc",
                    "properties": {
                      "FrameDuration": 1001,
                      "TimeScale": 30000
                    }
                  }
                ]
              }
            ],
            "encode": {
              "type": "h264",
              "properties": {
                "OutputFormat": "avc1"
              }
            }
          }
        ]
      }
    ]
  }
}