{
  "input": {
    "container": [
      {
        "name": "input",
        "audio": [
          {
            "name": "a1"
          }
        ],
        "video": [
          {
            "name": "v1"
          }
        ]
      }
    ]
  },
  "output": {
    "container": [
      {
        "type": "mp4 ",
        "name": "output",
        "audio": [
          {
            "encode": {
              "properties": {
                "BitRate": 128000,
                "Format": "aac ",
                "Profile": "lc"
              },
              "type": "mcac"
            },
            "route": {
              "name": "a1"
            }
          }
        ],
        "subtitle": [],
        "video": [
          {
            "width": 1280,
            "height": 720,
            "encode": {
              "type": "vpx "
            },
            "route": {
              "name": "v1"
            }
          }
        ]
      }
    ]
  }
}