{
  "input": {
    "container": [
      {
        "name": "input-1",
        "video": [
          {
            "name": "v1",
            "detach": [
              {
                "type": "c608"
              }
            ]
          }
        ],
        "audio": []
      }
    ]
  },
  "output": {
    "container": [
      {
        "name": "output-1",
        "type": "m2ts",
        "video": [
          {
            "name": "v2",
            "route": {
              "name": "v1"
            },
            "encode": {
              "type": "mcm2",
              "properties": {
                "OutputFormat": "mp2v",
                "Profile": 4,
                "Level": 4
              }
            },
            "attach": [
              {
                "root": "sc20",
                "type": "c608"
              }
            ]
          }
        ],
        "audio": []
      }
    ]
  }
}