{
  "input": {
    "container": [
      {
        "name": "input1",
        "video": [
          {
            "name": "v1"
          }
        ],
        "audio": [
          {
            "name": "a1"
          }
        ]
      }
    ]
  },
  "output": {
    "container": [
      {
        "type": "op1a",
        "name": "output1",
        "video": [
          {
            "name": "v2",
            "route": {
              "name": "v1"
            },
            "format": "I2AL",
            "pixel_aspect_ratio": {
              "numerator": 1,
              "denominator": 1
            },
            "encode": {
              "type": "mc64",
              "properties": {
                "Constraint": 2,
                "OutputFormat": "ai15"
              }
            },
            "filter": [
              {
                "type": "iffc",
                "properties": {
                  "FieldOrder": 2,
                  "FrameDuration": 1,
                  "Height": 1080,
                  "TimeScale": 25,
                  "Width": 1920
                }
              }
            ]
          }
        ],
        "audio": [
          {
            "name": "a2",
            "route": {
              "name": "a1"
            },
            "sample_rate": {
              "numerator": 48000,
              "denominator": 1
            },
            "encode": {
              "type": "mcac",
              "properties": {
                "Profile": 2,
                "OutputFormat": "mp4a"
              }
            }
          }
        ]
      }
    ]
  }
}