{
  "input": {
    "container": [
      {
        "name": "input-1",
        "video": [
          {
            "name": "v1"
          }
        ],
        "audio": [
          {
            "name": "english",
            "select": {
              "language": "eng"
            }
          }
        ]
      }
    ]
  },
  "output": {
    "container": [
      {
        "type": "mp4 ",
        "name": "output-1",
        "video": [
          {
            "name": "v1",
            "route": {
              "name": "v1"
            },
            "encode": {
              "type": "h264",
              "properties": {
                "OutputFormat": "avc1"
              }
            }
          }
        ],
        "audio": [
          {
            "name": "english",
            "route": {
              "name": "english"
            },
            "sample_rate": {
              "numerator": 32000,
              "denominator": 1
            },
            "encode": {
              "type": "mcac",
              "properties": {
                "Profile": 5,
                "OutputFormat": "mp4a"
              }
            }
          }
        ]
      }
    ]
  }
}