{
  "composition": {
    "input": {
      "container": [
        {
          "audio": [
            {
              "channels": 6,
              "name": "a1"
            }
          ],
          "name": "input1",
          "video": [
            {
              "name": "v1"
            }
          ]
        }
      ]
    },
    "output": {
      "container": [
        {
          "audio": [
            {
              "channels": 1,
              "name": "L",
              "properties": {
                "Format": "pcm_24int_little"
              },
              "route": {
                "channel": [
                  1
                ],
                "name": "a1"
              }
            },
            {
              "channels": 1,
              "name": "R",
              "properties": {
                "Format": "pcm_24int_little"
              },
              "route": {
                "channel": [
                  2
                ],
                "name": "a1"
              }
            },
            {
              "name": "C",
              "properties": {
                "Format": "pcm_24int_little"
              },
              "route": {
                "channel": [
                  3
                ],
                "name": "a1"
              }
            },
            {
              "name": "LFE",
              "properties": {
                "Format": "pcm_24int_little"
              },
              "route": {
                "channel": [
                  4
                ],
                "name": "a1"
              }
            },
            {
              "name": "Ls",
              "properties": {
                "Format": "pcm_24int_little"
              },
              "route": {
                "channel": [
                  5
                ],
                "name": "a1"
              }
            },
            {
              "name": "Rs",
              "properties": {
                "Format": "pcm_24int_little"
              },
              "route": {
                "channel": [
                  6
                ],
                "name": "a1"
              }
            }
          ],
          "name": "output1",
          "type": "mov ",
          "video": [
            {
              "color_primaries": 9,
              "encode": {
                "properties": {
                  "OutputFormat": "ap4x"
                },
                "type": "appr"
              },
              "height": 2160,
              "matrix_coefficients": 9,
              "route": {
                "name": "v1"
              },
              "transfer_characteristics": 14,
              "width": 3840
            }
          ]
        }
      ]
    }
  },
  "inputs": {
    "input1": {
      "url": ""
    }
  },
  "outputs": {
    "output1": {
      "path_format": "$original$.mov"
    }
  }
}