{
  "input": {
    "container": [
      {
        "name": "input-1",
        "video": [
          {
            "name": "v1",
            "detach": [
              {
                "type": "c708",
                "root": "a53c"
              }
            ]
          }
        ],
        "audio": [
          {
            "name": "a1"
          }
        ]
      }
    ]
  },
  "output": {
    "container": [
      {
        "type": "sdoc",
        "name": "output-1",
        "audio": [],
        "video": [],
        "subtitle": [
          {
            "route": {
              "name": "v1"
            },
            "filter": [
              {
                "properties": {
                  "OutputFormat": "c708"
                },
                "type": "ccsc"
              },
              {
                "properties": {
                  "OutputFormat": "ttml",
                  "SubtitleTtmlProfile": 5
                },
                "type": "ciem"
              }
            ]
          }
        ]
      }
    ]
  }
}