{
  "input": {
    "container": [
      {
        "name": "input",
        "audio": [
          {
            "name": "a1",
            "channels": 1
          },
          {
            "name": "a2",
            "channels": 1
          },
          {
            "name": "a3",
            "channels": 1
          },
          {
            "name": "a4",
            "channels": 1
          },
          {
            "name": "a5",
            "channels": 1
          },
          {
            "name": "a6",
            "channels": 1
          },
          {
            "name": "a7",
            "channels": 1
          },
          {
            "name": "a8",
            "channels": 1
          }
        ],
        "video": [],
        "subtitle": []
      }
    ]
  },
  "output": {
    "container": [
      {
        "name": "output",
        "type": "mp4 ",
        "audio": [
          {
            "name": "chan8",
            "channels": 8,
            "label": [
              "L",
              "C",
              "C",
              "C",
              "R",
              "Ls",
              "Rs",
              "LFE"
            ],
            "route": {
              "channel": [
                {
                  "name": "a1",
                  "channel": 1
                },
                {
                  "name": "a2",
                  "channel": 1
                },
                {
                  "name": "a3",
                  "channel": 1
                },
                {
                  "name": "a4",
                  "channel": 1
                },
                {
                  "name": "a5",
                  "channel": 1
                },
                {
                  "name": "a6",
                  "channel": 1
                },
                {
                  "name": "a7",
                  "channel": 1
                },
                {
                  "name": "a8",
                  "channel": 1
                }
              ]
            }
          }
        ],
        "video": [],
        "subtitle": []
      }
    ]
  }
}