{
  "input": {
    "container": [
      {
        "type": "mp4 ",
        "video": [
          {
            "name": "v1"
          }
        ],
        "audio": [
          {
            "name": "a1"
          }
        ]
      }
    ]
  },
  "output": {
    "package": [
      {
        "type": "cmaf",
        "name": "p1",
        "properties": {
          "FragmentDuration": 2,
          "SegmentDuration": 4
        },
        "audio": [
          {
            "name": "a2",
            "route": {
              "name": "a1"
            },
            "encode": {
              "type": "mcac",
              "properties": {
                "BitRate": 128000
              }
            },
            "sample_rate": {
              "numerator": 48000,
              "denominator": 1
            }
          }
        ],
        "video": [
          {
            "name": "v2",
            "route": {
              "name": "v1"
            },
            "encode": {
              "type": "h265",
              "properties": {
                "BitRate": 800000,
                "OpenGop": false,
                "FixedIdrFrameInterval": 96,
                "RateControlMethod": 3,
                "AdaptiveBFrameScheduling": false,
                "MaxBFrames": 2,
                "Level": 51,
                "Profile": 1,
                "BufferDelay": 1
              }
            },
            "width": 640,
            "height": 360,
            "sample_rate": {
              "numerator": 24,
              "denominator": 1
            }
          },
          {
            "name": "v3",
            "route": {
              "name": "v1"
            },
            "encode": {
              "type": "h265",
              "properties": {
                "BitRate": 1000000,
                "OpenGop": false,
                "FixedIdrFrameInterval": 96,
                "RateControlMethod": 3,
                "AdaptiveBFrameScheduling": false,
                "MaxBFrames": 2,
                "Level": 51,
                "Profile": 1,
                "BufferDelay": 1
              }
            },
            "width": 768,
            "height": 432,
            "sample_rate": {
              "numerator": 24,
              "denominator": 1
            }
          },
          {
            "name": "v4",
            "route": {
              "name": "v1"
            },
            "encode": {
              "type": "h265",
              "properties": {
                "BitRate": 1500000,
                "OpenGop": false,
                "FixedIdrFrameInterval": 96,
                "RateControlMethod": 3,
                "AdaptiveBFrameScheduling": false,
                "MaxBFrames": 2,
                "Level": 51,
                "Profile": 1,
                "BufferDelay": 1
              }
            },
            "width": 960,
            "height": 540,
            "sample_rate": {
              "numerator": 24,
              "denominator": 1
            }
          },
          {
            "name": "v5",
            "route": {
              "name": "v1"
            },
            "encode": {
              "type": "h265",
              "properties": {
                "BitRate": 4000000,
                "OpenGop": false,
                "FixedIdrFrameInterval": 96,
                "RateControlMethod": 3,
                "AdaptiveBFrameScheduling": false,
                "MaxBFrames": 2,
                "Level": 51,
                "Profile": 1,
                "BufferDelay": 1
              }
            },
            "width": 1280,
            "height": 720,
            "sample_rate": {
              "numerator": 24,
              "denominator": 1
            }
          },
          {
            "name": "v6",
            "route": {
              "name": "v1"
            },
            "encode": {
              "type": "h265",
              "properties": {
                "BitRate": 6000000,
                "OpenGop": false,
                "FixedIdrFrameInterval": 96,
                "RateControlMethod": 3,
                "AdaptiveBFrameScheduling": false,
                "MaxBFrames": 2,
                "Level": 51,
                "Profile": 1,
                "BufferDelay": 1
              }
            },
            "width": 1920,
            "height": 1080,
            "sample_rate": {
              "numerator": 24,
              "denominator": 1
            }
          },
          {
            "name": "v7",
            "route": {
              "name": "v1"
            },
            "encode": {
              "type": "h265",
              "properties": {
                "BitRate": 9000000,
                "OpenGop": false,
                "FixedIdrFrameInterval": 96,
                "RateControlMethod": 3,
                "AdaptiveBFrameScheduling": false,
                "MaxBFrames": 2,
                "Level": 51,
                "Profile": 1,
                "BufferDelay": 1
              }
            },
            "width": 3840,
            "height": 2160,
            "sample_rate": {
              "numerator": 24,
              "denominator": 1
            }
          }
        ],
        "container": [
          {
            "type": "mpg4",
            "name": "640x360p - AAC LC 128kbps",
            "properties": {
              "OutputSingleFile": false
            },
            "video": [
              {
                "route": {
                  "name": "v2"
                }
              }
            ],
            "audio": [
              {
                "route": {
                  "name": "a2"
                }
              }
            ]
          },
          {
            "type": "mpg4",
            "name": "768x432p - AAC LC 128kbps",
            "properties": {
              "OutputSingleFile": false
            },
            "video": [
              {
                "route": {
                  "name": "v3"
                }
              }
            ],
            "audio": [
              {
                "route": {
                  "name": "a2"
                }
              }
            ]
          },
          {
            "type": "mpg4",
            "name": "960x540p - AAC LC 128kbps",
            "properties": {
              "OutputSingleFile": false
            },
            "video": [
              {
                "route": {
                  "name": "v4"
                }
              }
            ],
            "audio": [
              {
                "route": {
                  "name": "a2"
                }
              }
            ]
          },
          {
            "type": "mpg4",
            "name": "1280x720p - AAC LC 128kbps",
            "properties": {
              "OutputSingleFile": false
            },
            "video": [
              {
                "route": {
                  "name": "v5"
                }
              }
            ],
            "audio": [
              {
                "route": {
                  "name": "a2"
                }
              }
            ]
          },
          {
            "type": "mpg4",
            "name": "1920x1080p - AAC LC 128kbps",
            "properties": {
              "OutputSingleFile": false
            },
            "video": [
              {
                "route": {
                  "name": "v6"
                }
              }
            ],
            "audio": [
              {
                "route": {
                  "name": "a2"
                }
              }
            ]
          },
          {
            "type": "mpg4",
            "name": "3840x2160p - AAC LC 128kbps",
            "properties": {
              "OutputSingleFile": false
            },
            "video": [
              {
                "route": {
                  "name": "v7"
                }
              }
            ],
            "audio": [
              {
                "route": {
                  "name": "a2"
                }
              }
            ]
          }
        ]
      }
    ]
  }
}